{
  "kind": "collectionType",
  "collectionName": "employes",
  "info": {
    "singularName": "employe",
    "pluralName": "employes",
    "displayName": "Employe",
    "description": ""
  },
  "options": {
    "draftAndPublish": true
  },
  "pluginOptions": {},
  "attributes": {
    "nomEmploye": {
      "type": "string"
    },
    "mailEmploye": {
      "type": "email"
    },
    "prenomEmploye": {
      "type": "string"
    },
    "dateNEmploye": {
      "type": "date"
    },
    "cin": {
      "type": "string"
    }
  }
}
